<?xml version="1.0" encoding="utf-8"?>
<!-- Generator: Adobe Illustrator 24.2.3, SVG Export Plug-In . SVG Version: 6.00 Build 0)  -->
<svg version="1.1" id="Layer_1" xmlns="http://www.w3.org/2000/svg" xmlns:xlink="http://www.w3.org/1999/xlink" x="0px" y="0px"
	 viewBox="0 0 54.2 48" style="enable-background:new 0 0 54.2 48;" xml:space="preserve">
<style type="text/css">
	.st0{fill:url(#SVGID_1_);}
	.st1{fill:url(#SVGID_2_);}
	.st2{opacity:0.8;}
	.st3{fill:#FFFFFF;}
	.st4{fill:url(#SVGID_3_);}
</style>
<g id="Layer_2_1_">
	<g id="Layer_1-2">
		
			<linearGradient id="SVGID_1_" gradientUnits="userSpaceOnUse" x1="0" y1="26" x2="54.2" y2="26" gradientTransform="matrix(1 0 0 -1 0 50)">
			<stop  offset="0" style="stop-color:#000000;stop-opacity:0"/>
			<stop  offset="0.23" style="stop-color:#1A1717;stop-opacity:0.15"/>
			<stop  offset="1" style="stop-color:#231F20;stop-opacity:0.2"/>
		</linearGradient>
		<path class="st0" d="M54.2,47.1V48H5.6C2.5,48,0,45.5,0,42.5V0h0.6v41.7c0,1.7,0.8,3.3,2.1,4.4c1,0.7,2.1,1,3.3,1
			C6,47.1,54.2,47.1,54.2,47.1z"/>
		
			<linearGradient id="SVGID_2_" gradientUnits="userSpaceOnUse" x1="50.2569" y1="1031.1432" x2="25.85" y2="1055.55" gradientTransform="matrix(1 0 0 1 0 -1030.4)">
			<stop  offset="0" style="stop-color:#000000;stop-opacity:0"/>
			<stop  offset="1" style="stop-color:#231F20;stop-opacity:0.3"/>
		</linearGradient>
		<path class="st1" d="M54.2,47.1V8c0-4.4-3.6-8-8-8H0.7L54.2,47.1z"/>
		<g class="st2">
			<path class="st3" d="M24.6,6.4l2,1.8c0.7,0.6,1.2,1.4,1.6,2.3c0.1,0.6,0,1.3-0.5,1.8c-0.3,0.4-0.8,0.6-1.3,0.8
				c-0.4,0.1-0.9,0-1.3-0.3l0,0c0.3,0.4,0.5,1,0.5,1.5s-0.2,0.9-0.5,1.3c-0.4,0.6-1.2,0.9-1.9,0.9c-0.9-0.1-1.7-0.4-2.3-1l-2.4-2.1
				L24.6,6.4z M22.5,11.1l-1.9,2.1l1.1,1.1c0.3,0.3,0.8,0.6,1.3,0.6c0.4,0,0.8-0.2,1.1-0.5c0.2-0.3,0.4-0.7,0.4-1.1
				c-0.2-0.5-0.5-0.9-0.9-1.3L22.5,11.1z M23.2,10.2l1,1c0.3,0.3,0.8,0.6,1.3,0.6c0.4,0,0.8-0.2,1-0.5c0.3-0.3,0.4-0.7,0.3-1
				c-0.2-0.4-0.5-0.8-0.9-1.1l-1-0.9L23.2,10.2z"/>
			<path class="st3" d="M28,21.4l0.4-0.9H27l-1-0.8c-0.5-0.3-0.8-0.8-0.9-1.4c0-0.6,0.2-1.1,0.6-1.5c0.4-0.5,1-0.8,1.6-0.8
				c0.8,0.2,1.5,0.6,2.1,1.1l0.9,0.8l0.3-0.3c0.2-0.2,0.3-0.6,0.4-0.9c0-0.4-0.2-0.7-0.5-0.9l-0.8-0.6l-1-0.3l0.4-1.1l1.1,0.5
				l1.1,0.6c0.6,0.4,0.9,1.1,1,1.8c0.1,0.7-0.1,1.3-0.6,1.8l-3,3.4L28,21.4z M27,19.3c0.3,0.3,0.8,0.5,1.3,0.5
				c0.4-0.1,0.8-0.3,1.1-0.6l0.4-0.5l-0.6-0.5l-1.4-0.8c-0.4,0-0.7,0.2-0.9,0.5c-0.2,0.1-0.3,0.4-0.3,0.6
				C26.6,18.8,26.8,19.1,27,19.3z"/>
			<path class="st3" d="M32.3,25.3c-0.7-0.6-1.2-1.4-1.3-2.3c0.1-0.9,0.5-1.8,1.1-2.4c0.6-0.8,1.4-1.3,2.4-1.5c0.9,0,1.8,0.3,2.4,1
				c0.6,0.3,1,0.9,1.3,1.5l-1.1,0.6c-0.2-0.5-0.5-0.9-0.9-1.3c-0.9-0.8-1.9-0.6-2.9,0.5c-0.4,0.4-0.7,1-0.8,1.6c0,0.5,0.2,1,0.6,1.3
				c0.4,0.5,1,0.8,1.6,0.9l-0.9,0.9L33.2,26L32.3,25.3z"/>
			<path class="st3" d="M38.3,25.7h1.4l2.9-0.4l1.3,1.1L40,26.8l-0.4,4.8l-1.3-1l0.3-3.8h-1l-1.5,1.8L35,27.7l6.3-7.3l1.1,1l-3,3.4
				C39.3,24.8,38.3,25.7,38.3,25.7z"/>
		</g>
		
			<linearGradient id="SVGID_3_" gradientUnits="userSpaceOnUse" x1="29.0501" y1="1052.35" x2="3.8349" y2="1077.5651" gradientTransform="matrix(1 0 0 1 0 -1030.4)">
			<stop  offset="0.3" style="stop-color:#FFFFFF;stop-opacity:0.5"/>
			<stop  offset="1" style="stop-color:#FFFFFF;stop-opacity:0.2"/>
		</linearGradient>
		<path class="st4" d="M54.2,47.1H6.1c-1.2,0-2.3-0.3-3.3-1c-1.3-1.1-2.1-2.7-2.1-4.4V0L54.2,47.1z"/>
	</g>
</g>
</svg>
